<svg width="120px" height="21px" viewBox="0 0 120 21" version="1.1" xmlns="http://www.w3.org/2000/svg" xmlns:xlink="http://www.w3.org/1999/xlink">
    <!-- Generator: Sketch 49 (51002) - http://www.bohemiancoding.com/sketch -->
    <defs></defs>
    <g id="Page-1" stroke="none" stroke-width="1" fill="none" fill-rule="evenodd">
        <g id="Project_Deep-State_v2" transform="translate(-20.000000, -20.000000)" fill="#ffffff">
            <g id="Main-Nav">
                <g id="MMMultiply-Logo" transform="translate(20.000000, 20.000000)">
                    <path d="M18.5780889,16.0254517 L21.4302744,16.0254517 L21.4302744,4.92540412 L25.8115799,10.7925357 L27.5273415,10.7925357 L31.8848061,4.92540412 L31.8848061,16.0254517 L34.7372185,16.0254517 L34.7372185,0.803391442 L31.7456197,0.803391442 L26.6692904,7.64408875 L21.5687796,0.803391442 L18.5780889,0.803391442 L18.5780889,16.0254517 Z M13.168439,0.803391442 L8.09142857,7.6455309 L2.99069063,0.803391442 L0,0.803391442 L0,16.0285578 L2.85082308,16.0285578 L2.85082308,4.92540412 L7.23337748,10.793645 L8.94936613,10.793645 L13.3068307,4.92540412 L13.3068307,16.0285578 L16.1590161,16.0285578 L16.1590161,0.803391442 L13.168439,0.803391442 Z M120,4.91708399 L116.918032,4.91708399 L114.043027,12.7305705 L111.098657,4.91708399 L107.992167,4.91708399 L112.675913,15.8804596 L112.2814,16.8570206 C111.74736,18.1458637 111.144863,18.6897781 110.12492,18.6897781 C109.823841,18.6897781 109.428988,18.6227734 109.035951,18.5310301 L108.641211,20.7959905 C109.290028,20.9326624 109.916026,21 110.402498,21 C112.49052,21 113.927342,19.7777179 114.946717,17.2614897 L120,4.91708399 Z M105.896537,0.0683359746 L102.928893,0.0683359746 L102.928893,13.1410301 C102.928893,15.0658637 104.25071,16.2880349 106.336575,16.2880349 C106.940095,16.2880349 107.658051,16.1982884 108.40053,16.0395404 L108.075724,13.841141 C107.704711,13.9080349 107.333359,13.977813 107.056008,13.977813 C106.359962,13.977813 105.896537,13.5481616 105.896537,12.8452773 L105.896537,0.0683359746 Z M89.8390161,20.7293185 L92.8068874,20.7293185 L92.8068874,14.7474802 C93.617597,15.7437876 94.8240681,16.2909192 96.2135478,16.2909192 C99.2750804,16.2909192 101.431447,13.885626 101.431447,10.467607 C101.431447,7.04581616 99.2750804,4.64507132 96.2135478,4.64507132 C94.7067928,4.64507132 93.4083633,5.25599049 92.5739262,6.3440412 L92.2042763,4.91708399 L89.8390161,4.91708399 L89.8390161,20.7293185 Z M95.4490445,6.93144216 C97.1871712,6.93144216 98.4171429,8.38191759 98.4171429,10.467607 C98.4171429,12.5271157 97.1871712,14.0001109 95.4490445,14.0001109 C93.8738316,14.0001109 92.7596594,12.8227575 92.7596594,11.2130903 L92.7596594,9.71824089 C92.7596594,8.08771791 93.8738316,6.93144216 95.4490445,6.93144216 Z M86.0209272,0 C85.0008704,0 84.2600946,0.726735341 84.2600946,1.74489699 C84.2600946,2.76472266 85.0008704,3.48857369 86.0209272,3.48857369 C87.0652791,3.48857369 87.8061684,2.76472266 87.8061684,1.74489699 C87.8061684,0.726735341 87.0652791,0 86.0209272,0 Z M84.5377862,16.0172425 L87.5048628,16.0172425 L87.5048628,4.91564184 L84.5377862,4.91564184 L84.5377862,16.0172425 Z M78.9703311,1.65415214 L76.003141,1.65415214 L76.003141,4.91708399 L73.8932072,4.91708399 L73.8932072,7.11270998 L76.003141,7.11270998 L76.003141,12.7086054 C76.003141,14.8370048 77.5784674,16.2909192 79.8517692,16.2909192 C80.6633869,16.2909192 81.5215516,16.1762124 82.4251277,15.9501268 L82.0302744,13.7741363 C81.497824,13.9108082 81.0110123,13.977813 80.5698392,13.977813 C79.6191485,13.977813 78.9703311,13.3441521 78.9703311,12.415626 L78.9703311,7.11270998 L82.1237086,7.11270998 L82.1237086,4.91708399 L78.9703311,4.91708399 L78.9703311,1.65415214 Z M71.706982,0.0683359746 L68.7392242,0.0683359746 L68.7392242,13.1410301 C68.7392242,15.0658637 70.0610407,16.2880349 72.1466793,16.2880349 C72.7505393,16.2880349 73.4684957,16.1982884 74.2108609,16.0395404 L73.8861684,13.841141 C73.5148155,13.9080349 73.1438032,13.977813 72.8661116,13.977813 C72.1702933,13.977813 71.706982,13.5481616 71.706982,12.8452773 L71.706982,0.0683359746 Z M66.4664901,4.91708399 L63.4991864,4.91708399 L63.4991864,11.0328209 C63.4991864,12.7305705 62.3401703,13.9108082 60.7405487,13.9108082 C59.348685,13.9108082 58.3523557,12.9594295 58.3523557,11.5758479 L58.3523557,4.91708399 L55.3843709,4.91708399 L55.3843709,12.0530903 C55.3843709,14.5440254 57.2395459,16.2880349 59.8354967,16.2880349 C61.4815516,16.2880349 62.8969158,15.6072266 63.7312394,14.4073534 L64.1008893,16.0172425 L66.4664901,16.0172425 L66.4664901,4.91708399 Z M37.1560643,0.806164818 L40.1468685,0.806164818 L45.2473794,7.64719493 L50.3238221,0.806164818 L53.3143992,0.806164818 L53.3143992,16.0285578 L50.4630085,16.0285578 L50.4630085,4.9281775 L46.1054305,10.7968621 L44.3887606,10.7968621 L40.0083633,4.9281775 L40.0083633,16.0285578 L37.1560643,16.0285578 L37.1560643,0.806164818 Z" id="Fill-1"></path>
                </g>
            </g>
        </g>
    </g>
</svg>